{
	"skills": {
		"Basic Attack I": {
			"branch": "Basher",
			"tier": 0,
			"type": "Attack",
			"cost": 0,
			"art": "attack.jpg",
			"effects": {
				"damage": [1]
			},
		},
		"Basic Attack II": {
			"branch": "Basher",
			"tier": 1,
			"type": "Attack",
			"cost": 0,
			"art": "attack_3.jpg",
			"effects": {
				"damage": [2]
			}
		},
		"Basic Attack III": {
			"branch": "Basher",
			"tier": 2,
			"type": "Attack",
			"cost": 0,
			"art": "attack.jpg",
			"effects": {
				"damage": [3]
			}
		},
		"Smite": {
			"branch": "Basher",
			"tier": 1,
			"type": "Attack",
			"cost": 0,
			"art": "attack_3.jpg",
			"effects": {
				"damage": [4]
			}
		},
		"Slap": {
			"branch": "Basher",
			"tier": 2,
			"type": "Attack",
			"cost": 0,
			"art": "attack_2.jpg",
			"effects": {
				"damage": [5]
			}
		}
	}
}